%YAML 1.1
%TAG !u! tag:unity3d.com,2011:
--- !u!114 &11400000
MonoBehaviour:
  m_ObjectHideFlags: 0
  m_CorrespondingSourceObject: {fileID: 0}
  m_PrefabInstance: {fileID: 0}
  m_PrefabAsset: {fileID: 0}
  m_GameObject: {fileID: 0}
  m_Enabled: 1
  m_EditorHideFlags: 0
  m_Script: {fileID: 11500000, guid: 2ee7e62c3c531ca46a67797ad6f41b50, type: 3}
  m_Name: SoundManagerSettings
  m_EditorClassIdentifier: 
  AutoPause: 1
  MusicVolumeCorrection: 1
  SoundVolumeCorrection: 1
  MusicFadeTime: 2
  MusicAudioMixerGroup: {fileID: -8598798310340554906, guid: dfe74f52538d02f44b397debe4c9b7f5, type: 2}
  SoundAudioMixerGroup: {fileID: -809895737699925046, guid: dfe74f52538d02f44b397debe4c9b7f5, type: 2}
  PreloadedLoadedClips: []
